<?xml version="1.0" encoding="UTF-8" standalone="no"?>
<svg
   xmlns:dc="http://purl.org/dc/elements/1.1/"
   xmlns:cc="http://creativecommons.org/ns#"
   xmlns:rdf="http://www.w3.org/1999/02/22-rdf-syntax-ns#"
   xmlns:svg="http://www.w3.org/2000/svg"
   xmlns="http://www.w3.org/2000/svg"
   xmlns:xlink="http://www.w3.org/1999/xlink"
   xmlns:sodipodi="http://sodipodi.sourceforge.net/DTD/sodipodi-0.dtd"
   xmlns:inkscape="http://www.inkscape.org/namespaces/inkscape"
   width="157.54396mm"
   height="80.881943mm"
   viewBox="0 0 157.54397 80.881942"
   version="1.1"
   id="svg8"
   inkscape:version="1.0.1 (3bc2e813f5, 2020-09-07)"
   sodipodi:docname="apache-arrow-and-amazon-athena.svg">
  <defs
     id="defs2">
    <marker
       style="overflow:visible"
       id="marker1668"
       refX="0"
       refY="0"
       orient="auto"
       inkscape:stockid="Arrow1Send"
       inkscape:isstock="true">
      <path
         transform="matrix(-0.2,0,0,-0.2,-1.2,0)"
         style="fill:#000000;fill-opacity:1;fill-rule:evenodd;stroke:#000000;stroke-width:1pt;stroke-opacity:1"
         d="M 0,0 5,-5 -12.5,0 5,5 Z"
         id="path1666" />
    </marker>
    <marker
       style="overflow:visible"
       id="marker1278"
       refX="0"
       refY="0"
       orient="auto"
       inkscape:stockid="Arrow1Send"
       inkscape:isstock="true"
       inkscape:collect="always">
      <path
         transform="matrix(-0.2,0,0,-0.2,-1.2,0)"
         style="fill:#000000;fill-opacity:1;fill-rule:evenodd;stroke:#000000;stroke-width:1pt;stroke-opacity:1"
         d="M 0,0 5,-5 -12.5,0 5,5 Z"
         id="path1276" />
    </marker>
    <marker
       style="overflow:visible"
       id="marker1268"
       refX="0"
       refY="0"
       orient="auto"
       inkscape:stockid="Arrow1Send"
       inkscape:isstock="true">
      <path
         transform="matrix(-0.2,0,0,-0.2,-1.2,0)"
         style="fill:#000000;fill-opacity:1;fill-rule:evenodd;stroke:#000000;stroke-width:1pt;stroke-opacity:1"
         d="M 0,0 5,-5 -12.5,0 5,5 Z"
         id="path1266" />
    </marker>
    <marker
       style="overflow:visible"
       id="TriangleOutS"
       refX="0"
       refY="0"
       orient="auto"
       inkscape:stockid="TriangleOutS"
       inkscape:isstock="true">
      <path
         transform="scale(0.2)"
         style="fill:#000000;fill-opacity:1;fill-rule:evenodd;stroke:#000000;stroke-width:1pt;stroke-opacity:1"
         d="M 5.77,0 -2.88,5 V -5 Z"
         id="path2733" />
    </marker>
    <marker
       style="overflow:visible"
       id="marker2327"
       refX="0"
       refY="0"
       orient="auto"
       inkscape:stockid="Arrow1Send"
       inkscape:isstock="true">
      <path
         transform="matrix(-0.2,0,0,-0.2,-1.2,0)"
         style="fill:#000000;fill-opacity:1;fill-rule:evenodd;stroke:#000000;stroke-width:1pt;stroke-opacity:1"
         d="M 0,0 5,-5 -12.5,0 5,5 Z"
         id="path2325" />
    </marker>
    <marker
       style="overflow:visible"
       id="marker2151"
       refX="0"
       refY="0"
       orient="auto"
       inkscape:stockid="Arrow1Send"
       inkscape:isstock="true">
      <path
         transform="matrix(-0.2,0,0,-0.2,-1.2,0)"
         style="fill:#000000;fill-opacity:1;fill-rule:evenodd;stroke:#000000;stroke-width:1pt;stroke-opacity:1"
         d="M 0,0 5,-5 -12.5,0 5,5 Z"
         id="path2149" />
    </marker>
    <marker
       style="overflow:visible"
       id="marker2092"
       refX="0"
       refY="0"
       orient="auto"
       inkscape:stockid="Arrow1Send"
       inkscape:isstock="true">
      <path
         transform="matrix(-0.2,0,0,-0.2,-1.2,0)"
         style="fill:#000000;fill-opacity:1;fill-rule:evenodd;stroke:#000000;stroke-width:1pt;stroke-opacity:1"
         d="M 0,0 5,-5 -12.5,0 5,5 Z"
         id="path2090" />
    </marker>
    <rect
       x="-213.16458"
       y="96.868965"
       width="19.35424"
       height="22.214643"
       id="rect2450" />
    <marker
       style="overflow:visible"
       id="marker2259"
       refX="0"
       refY="0"
       orient="auto"
       inkscape:stockid="Arrow1Send"
       inkscape:isstock="true">
      <path
         transform="matrix(-0.2,0,0,-0.2,-1.2,0)"
         style="fill:#000000;fill-opacity:1;fill-rule:evenodd;stroke:#000000;stroke-width:1pt;stroke-opacity:1"
         d="M 0,0 5,-5 -12.5,0 5,5 Z"
         id="path2257" />
    </marker>
    <marker
       style="overflow:visible"
       id="marker1914"
       refX="0"
       refY="0"
       orient="auto"
       inkscape:stockid="Arrow1Send"
       inkscape:isstock="true">
      <path
         transform="matrix(-0.2,0,0,-0.2,-1.2,0)"
         style="fill:#000000;fill-opacity:1;fill-rule:evenodd;stroke:#000000;stroke-width:1pt;stroke-opacity:1"
         d="M 0,0 5,-5 -12.5,0 5,5 Z"
         id="path1912" />
    </marker>
    <marker
       style="overflow:visible"
       id="marker1641"
       refX="0"
       refY="0"
       orient="auto"
       inkscape:stockid="Arrow1Send"
       inkscape:isstock="true">
      <path
         transform="matrix(-0.2,0,0,-0.2,-1.2,0)"
         style="fill:#000000;fill-opacity:1;fill-rule:evenodd;stroke:#000000;stroke-width:1pt;stroke-opacity:1"
         d="M 0,0 5,-5 -12.5,0 5,5 Z"
         id="path1639" />
    </marker>
    <marker
       style="overflow:visible"
       id="marker1571"
       refX="0"
       refY="0"
       orient="auto"
       inkscape:stockid="Arrow1Send"
       inkscape:isstock="true">
      <path
         transform="matrix(-0.2,0,0,-0.2,-1.2,0)"
         style="fill:#000000;fill-opacity:1;fill-rule:evenodd;stroke:#000000;stroke-width:1pt;stroke-opacity:1"
         d="M 0,0 5,-5 -12.5,0 5,5 Z"
         id="path1569" />
    </marker>
    <marker
       style="overflow:visible"
       id="Arrow1Send"
       refX="0"
       refY="0"
       orient="auto"
       inkscape:stockid="Arrow1Send"
       inkscape:isstock="true"
       inkscape:collect="always">
      <path
         transform="matrix(-0.2,0,0,-0.2,-1.2,0)"
         style="fill:#000000;fill-opacity:1;fill-rule:evenodd;stroke:#000000;stroke-width:1pt;stroke-opacity:1"
         d="M 0,0 5,-5 -12.5,0 5,5 Z"
         id="path1308" />
    </marker>
    <marker
       inkscape:isstock="true"
       style="overflow:visible"
       id="marker8361"
       refX="0"
       refY="0"
       orient="auto"
       inkscape:stockid="Arrow1Mend">
      <path
         transform="matrix(-0.4,0,0,-0.4,-4,0)"
         style="fill:#000000;fill-opacity:1;fill-rule:evenodd;stroke:#000000;stroke-width:1pt;stroke-opacity:1"
         d="M 0,0 5,-5 -12.5,0 5,5 Z"
         id="path8359"
         inkscape:connector-curvature="0" />
    </marker>
    <marker
       inkscape:isstock="true"
       style="overflow:visible"
       id="marker6254"
       refX="0"
       refY="0"
       orient="auto"
       inkscape:stockid="Arrow1Mend">
      <path
         transform="matrix(-0.4,0,0,-0.4,-4,0)"
         style="fill:#000000;fill-opacity:1;fill-rule:evenodd;stroke:#000000;stroke-width:1pt;stroke-opacity:1"
         d="M 0,0 5,-5 -12.5,0 5,5 Z"
         id="path6252"
         inkscape:connector-curvature="0" />
    </marker>
    <marker
       inkscape:stockid="Arrow1Mstart"
       orient="auto"
       refY="0"
       refX="0"
       id="marker6190"
       style="overflow:visible"
       inkscape:isstock="true">
      <path
         id="path6188"
         d="M 0,0 5,-5 -12.5,0 5,5 Z"
         style="fill:#000000;fill-opacity:1;fill-rule:evenodd;stroke:#000000;stroke-width:1pt;stroke-opacity:1"
         transform="matrix(0.4,0,0,0.4,4,0)"
         inkscape:connector-curvature="0" />
    </marker>
    <marker
       inkscape:isstock="true"
       style="overflow:visible"
       id="marker4687"
       refX="0"
       refY="0"
       orient="auto"
       inkscape:stockid="Arrow1Mend">
      <path
         transform="matrix(-0.4,0,0,-0.4,-4,0)"
         style="fill:#000000;fill-opacity:1;fill-rule:evenodd;stroke:#000000;stroke-width:1pt;stroke-opacity:1"
         d="M 0,0 5,-5 -12.5,0 5,5 Z"
         id="path4685"
         inkscape:connector-curvature="0" />
    </marker>
    <marker
       inkscape:stockid="Arrow1Lstart"
       orient="auto"
       refY="0"
       refX="0"
       id="Arrow1Lstart"
       style="overflow:visible"
       inkscape:isstock="true">
      <path
         id="path1831"
         d="M 0,0 5,-5 -12.5,0 5,5 Z"
         style="fill:#000000;fill-opacity:1;fill-rule:evenodd;stroke:#000000;stroke-width:1pt;stroke-opacity:1"
         transform="matrix(0.8,0,0,0.8,10,0)"
         inkscape:connector-curvature="0" />
    </marker>
    <marker
       inkscape:stockid="Arrow1Lend"
       orient="auto"
       refY="0"
       refX="0"
       id="Arrow1Lend"
       style="overflow:visible"
       inkscape:isstock="true">
      <path
         id="path1834"
         d="M 0,0 5,-5 -12.5,0 5,5 Z"
         style="fill:#000000;fill-opacity:1;fill-rule:evenodd;stroke:#000000;stroke-width:1pt;stroke-opacity:1"
         transform="matrix(-0.8,0,0,-0.8,-10,0)"
         inkscape:connector-curvature="0" />
    </marker>
    <inkscape:perspective
       id="perspective95"
       inkscape:persp3d-origin="24.000007 : 36.733068 : 1"
       inkscape:vp_z="48.00001 : 44.733068 : 1"
       inkscape:vp_y="0 : 999.99974 : 0"
       inkscape:vp_x="0 : 44.733068 : 1"
       sodipodi:type="inkscape:persp3d" />
    <linearGradient
       id="linearGradient4126">
      <stop
         id="stop4128"
         offset="0.0000000"
         style="stop-color:#ffffff;stop-opacity:1.0000000;" />
      <stop
         id="stop4130"
         offset="1.0000000"
         style="stop-color:#ffffff;stop-opacity:0.16494845;" />
    </linearGradient>
    <linearGradient
       id="linearGradient4114"
       inkscape:collect="always">
      <stop
         id="stop4116"
         offset="0"
         style="stop-color:#000000;stop-opacity:1;" />
      <stop
         id="stop4118"
         offset="1"
         style="stop-color:#000000;stop-opacity:0;" />
    </linearGradient>
    <linearGradient
       id="linearGradient3962">
      <stop
         id="stop3964"
         offset="0.0000000"
         style="stop-color:#d3e9ff;stop-opacity:1.0000000;" />
      <stop
         id="stop4134"
         offset="0.15517241"
         style="stop-color:#d3e9ff;stop-opacity:1.0000000;" />
      <stop
         id="stop4346"
         offset="0.75000000"
         style="stop-color:#4074ae;stop-opacity:1.0000000;" />
      <stop
         id="stop3966"
         offset="1.0000000"
         style="stop-color:#36486c;stop-opacity:1.0000000;" />
    </linearGradient>
    <inkscape:perspective
       id="perspective31"
       inkscape:persp3d-origin="24.000007 : 36.733068 : 1"
       inkscape:vp_z="48.00001 : 44.733068 : 1"
       inkscape:vp_y="0 : 999.99974 : 0"
       inkscape:vp_x="0 : 44.733068 : 1"
       sodipodi:type="inkscape:persp3d" />
    <linearGradient
       id="linearGradient3264">
      <stop
         id="stop3266"
         offset="0"
         style="stop-color:#c9c9c9;stop-opacity:1;" />
      <stop
         style="stop-color:#f8f8f8;stop-opacity:1;"
         offset="0.25"
         id="stop3276" />
      <stop
         style="stop-color:#e2e2e2;stop-opacity:1;"
         offset="0.5"
         id="stop3272" />
      <stop
         id="stop3274"
         offset="0.75"
         style="stop-color:#b0b0b0;stop-opacity:1;" />
      <stop
         id="stop3268"
         offset="1"
         style="stop-color:#c9c9c9;stop-opacity:1;" />
    </linearGradient>
    <linearGradient
       id="linearGradient2300">
      <stop
         style="stop-color:#000000;stop-opacity:0.32673267;"
         offset="0.0000000"
         id="stop2302" />
      <stop
         style="stop-color:#000000;stop-opacity:0;"
         offset="1"
         id="stop2304" />
    </linearGradient>
    <linearGradient
       y2="248.6311"
       x2="153.0005"
       y1="15.4238"
       x1="99.777298"
       gradientUnits="userSpaceOnUse"
       id="aigrd1">
      <stop
         id="stop53300"
         style="stop-color:#184375"
         offset="0" />
      <stop
         id="stop53302"
         style="stop-color:#C8BDDC"
         offset="1" />
    </linearGradient>
    <linearGradient
       gradientTransform="matrix(0.200685,0,0,0.200685,-0.585758,-1.050787)"
       y2="248.6311"
       x2="153.0005"
       y1="15.4238"
       x1="99.777298"
       gradientUnits="userSpaceOnUse"
       id="linearGradient53551"
       xlink:href="#aigrd1"
       inkscape:collect="always" />
    <inkscape:perspective
       id="perspective22"
       inkscape:persp3d-origin="24.000007 : 36.733068 : 1"
       inkscape:vp_z="48.00001 : 44.733068 : 1"
       inkscape:vp_y="0 : 999.99974 : 0"
       inkscape:vp_x="0 : 44.733068 : 1"
       sodipodi:type="inkscape:persp3d" />
    <inkscape:perspective
       id="perspective114"
       inkscape:persp3d-origin="24.000007 : 36.733068 : 1"
       inkscape:vp_z="48.00001 : 44.733068 : 1"
       inkscape:vp_y="0 : 999.99974 : 0"
       inkscape:vp_x="0 : 44.733068 : 1"
       sodipodi:type="inkscape:persp3d" />
    <linearGradient
       id="linearGradient5048">
      <stop
         id="stop5050"
         offset="0"
         style="stop-color:black;stop-opacity:0;" />
      <stop
         style="stop-color:black;stop-opacity:1;"
         offset="0.5"
         id="stop5056" />
      <stop
         id="stop5052"
         offset="1"
         style="stop-color:black;stop-opacity:0;" />
    </linearGradient>
    <linearGradient
       id="linearGradient6719">
      <stop
         id="stop6721"
         offset="0"
         style="stop-color:#73d216;stop-opacity:1;" />
      <stop
         id="stop6723"
         offset="1.0000000"
         style="stop-color:#d5f7b3;stop-opacity:1.0000000;" />
    </linearGradient>
    <linearGradient
       id="linearGradient6711">
      <stop
         id="stop6713"
         offset="0.0000000"
         style="stop-color:#5b8ccb;stop-opacity:1.0000000;" />
      <stop
         id="stop6715"
         offset="1.0000000"
         style="stop-color:#3465a4;stop-opacity:1.0000000;" />
    </linearGradient>
    <linearGradient
       id="linearGradient6699">
      <stop
         id="stop6701"
         offset="0.0000000"
         style="stop-color:#ff7171;stop-opacity:1.0000000;" />
      <stop
         id="stop6703"
         offset="1.0000000"
         style="stop-color:#cc0000;stop-opacity:1.0000000;" />
    </linearGradient>
    <radialGradient
       gradientUnits="userSpaceOnUse"
       gradientTransform="matrix(1,0,0,0.284916,0,30.08928)"
       r="15.821514"
       fy="42.07798"
       fx="24.306795"
       cy="42.07798"
       cx="24.306795"
       id="radialGradient4548"
       xlink:href="#linearGradient4114"
       inkscape:collect="always" />
    <linearGradient
       id="linearGradient269">
      <stop
         style="stop-color:#a3a3a3;stop-opacity:1.0000000;"
         offset="0.0000000"
         id="stop270" />
      <stop
         style="stop-color:#4c4c4c;stop-opacity:1.0000000;"
         offset="1.0000000"
         id="stop271" />
    </linearGradient>
    <linearGradient
       id="linearGradient259">
      <stop
         style="stop-color:#fafafa;stop-opacity:1.0000000;"
         offset="0.0000000"
         id="stop260" />
      <stop
         style="stop-color:#bbbbbb;stop-opacity:1.0000000;"
         offset="1.0000000"
         id="stop261" />
    </linearGradient>
    <linearGradient
       id="linearGradient15662">
      <stop
         style="stop-color:#ffffff;stop-opacity:1.0000000;"
         offset="0.0000000"
         id="stop15664" />
      <stop
         style="stop-color:#f8f8f8;stop-opacity:1.0000000;"
         offset="1.0000000"
         id="stop15666" />
    </linearGradient>
    <linearGradient
       id="aigrd13"
       gradientUnits="userSpaceOnUse"
       x1="97.241203"
       y1="82.093803"
       x2="118.302"
       y2="99.298401">
      <stop
         offset="0"
         style="stop-color:#E8F066"
         id="stop12995" />
      <stop
         offset="1"
         style="stop-color:#949941"
         id="stop12997" />
    </linearGradient>
    <linearGradient
       id="aigrd12"
       gradientUnits="userSpaceOnUse"
       x1="90.8311"
       y1="89.110397"
       x2="115.5175"
       y2="100.6528">
      <stop
         offset="0"
         style="stop-color:#E8F066"
         id="stop12988" />
      <stop
         offset="1"
         style="stop-color:#777A34"
         id="stop12990" />
    </linearGradient>
    <linearGradient
       id="aigrd11"
       gradientUnits="userSpaceOnUse"
       x1="105.0923"
       y1="75.109901"
       x2="124.8197"
       y2="92.612297">
      <stop
         offset="0"
         style="stop-color:#3FA6CC"
         id="stop12981" />
      <stop
         offset="1"
         style="stop-color:#00687A"
         id="stop12983" />
    </linearGradient>
    <linearGradient
       id="aigrd10"
       gradientUnits="userSpaceOnUse"
       x1="107.8672"
       y1="84.757797"
       x2="126.1107"
       y2="94.800003">
      <stop
         offset="0"
         style="stop-color:#2C7894"
         id="stop12974" />
      <stop
         offset="1"
         style="stop-color:#0E3D47"
         id="stop12976" />
    </linearGradient>
    <linearGradient
       id="aigrd9"
       gradientUnits="userSpaceOnUse"
       x1="105.8184"
       y1="78.107903"
       x2="118.2002"
       y2="95.899902">
      <stop
         offset="0"
         style="stop-color:#C1553A"
         id="stop12967" />
      <stop
         offset="1"
         style="stop-color:#803926"
         id="stop12969" />
    </linearGradient>
    <linearGradient
       id="aigrd8"
       gradientUnits="userSpaceOnUse"
       x1="106.0254"
       y1="81.1763"
       x2="118.3481"
       y2="98.883202">
      <stop
         offset="0"
         style="stop-color:#C09287"
         id="stop12960" />
      <stop
         offset="1"
         style="stop-color:#803926"
         id="stop12962" />
    </linearGradient>
    <linearGradient
       y2="98.883202"
       x2="118.3481"
       y1="81.1763"
       x1="106.0254"
       gradientUnits="userSpaceOnUse"
       id="linearGradient1681"
       xlink:href="#aigrd8"
       inkscape:collect="always" />
    <linearGradient
       y2="95.899902"
       x2="118.2002"
       y1="78.107903"
       x1="105.8184"
       gradientUnits="userSpaceOnUse"
       id="linearGradient1683"
       xlink:href="#aigrd9"
       inkscape:collect="always" />
    <linearGradient
       y2="94.800003"
       x2="126.1107"
       y1="84.757797"
       x1="107.8672"
       gradientUnits="userSpaceOnUse"
       id="linearGradient1685"
       xlink:href="#aigrd10"
       inkscape:collect="always" />
    <linearGradient
       y2="92.612297"
       x2="124.8197"
       y1="75.109901"
       x1="105.0923"
       gradientUnits="userSpaceOnUse"
       id="linearGradient1687"
       xlink:href="#aigrd11"
       inkscape:collect="always" />
    <linearGradient
       y2="100.6528"
       x2="115.5175"
       y1="89.110397"
       x1="90.8311"
       gradientUnits="userSpaceOnUse"
       id="linearGradient1689"
       xlink:href="#aigrd12"
       inkscape:collect="always" />
    <linearGradient
       y2="99.298401"
       x2="118.302"
       y1="82.093803"
       x1="97.241203"
       gradientUnits="userSpaceOnUse"
       id="linearGradient1691"
       xlink:href="#aigrd13"
       inkscape:collect="always" />
    <clipPath
       id="cpNzguMjd8NDk4LjUyfDIyOS4zNnwyMi43OA==">
      <rect
         x="78.269997"
         y="22.780001"
         width="420.25"
         height="206.58"
         id="rect10" />
    </clipPath>
    <clipPath
       id="clipPath124">
      <rect
         x="78.269997"
         y="22.780001"
         width="420.25"
         height="206.58"
         id="rect122" />
    </clipPath>
    <clipPath
       id="clipPath128">
      <rect
         x="78.269997"
         y="22.780001"
         width="420.25"
         height="206.58"
         id="rect126" />
    </clipPath>
    <clipPath
       id="clipPath132">
      <rect
         x="78.269997"
         y="22.780001"
         width="420.25"
         height="206.58"
         id="rect130" />
    </clipPath>
    <clipPath
       id="clipPath136">
      <rect
         x="78.269997"
         y="22.780001"
         width="420.25"
         height="206.58"
         id="rect134" />
    </clipPath>
    <clipPath
       id="clipPath140">
      <rect
         x="78.269997"
         y="22.780001"
         width="420.25"
         height="206.58"
         id="rect138" />
    </clipPath>
    <clipPath
       id="clipPath144">
      <rect
         x="78.269997"
         y="22.780001"
         width="420.25"
         height="206.58"
         id="rect142" />
    </clipPath>
    <clipPath
       id="clipPath148">
      <rect
         x="78.269997"
         y="22.780001"
         width="420.25"
         height="206.58"
         id="rect146" />
    </clipPath>
    <clipPath
       id="clipPath152">
      <rect
         x="78.269997"
         y="22.780001"
         width="420.25"
         height="206.58"
         id="rect150" />
    </clipPath>
    <clipPath
       id="clipPath156">
      <rect
         x="78.269997"
         y="22.780001"
         width="420.25"
         height="206.58"
         id="rect154" />
    </clipPath>
    <clipPath
       id="clipPath160">
      <rect
         x="78.269997"
         y="22.780001"
         width="420.25"
         height="206.58"
         id="rect158" />
    </clipPath>
    <clipPath
       id="clipPath164">
      <rect
         x="78.269997"
         y="22.780001"
         width="420.25"
         height="206.58"
         id="rect162" />
    </clipPath>
    <clipPath
       id="clipPath168">
      <rect
         x="78.269997"
         y="22.780001"
         width="420.25"
         height="206.58"
         id="rect166" />
    </clipPath>
    <clipPath
       id="clipPath172">
      <rect
         x="78.269997"
         y="22.780001"
         width="420.25"
         height="206.58"
         id="rect170" />
    </clipPath>
    <clipPath
       id="cpMC4wMHw1MDQuMDB8MjczLjYwfDAuMDA=">
      <rect
         x="0"
         y="0"
         width="504"
         height="273.60001"
         id="rect43" />
    </clipPath>
    <clipPath
       id="clipPath178">
      <rect
         x="0"
         y="0"
         width="504"
         height="273.60001"
         id="rect176" />
    </clipPath>
    <clipPath
       id="clipPath182">
      <rect
         x="0"
         y="0"
         width="504"
         height="273.60001"
         id="rect180" />
    </clipPath>
    <clipPath
       id="clipPath186">
      <rect
         x="0"
         y="0"
         width="504"
         height="273.60001"
         id="rect184" />
    </clipPath>
    <clipPath
       id="clipPath190">
      <rect
         x="0"
         y="0"
         width="504"
         height="273.60001"
         id="rect188" />
    </clipPath>
    <clipPath
       id="clipPath194">
      <rect
         x="0"
         y="0"
         width="504"
         height="273.60001"
         id="rect192" />
    </clipPath>
    <clipPath
       id="clipPath198">
      <rect
         x="0"
         y="0"
         width="504"
         height="273.60001"
         id="rect196" />
    </clipPath>
    <clipPath
       id="clipPath202">
      <rect
         x="0"
         y="0"
         width="504"
         height="273.60001"
         id="rect200" />
    </clipPath>
    <clipPath
       id="clipPath206">
      <rect
         x="0"
         y="0"
         width="504"
         height="273.60001"
         id="rect204" />
    </clipPath>
    <clipPath
       id="clipPath210">
      <rect
         x="0"
         y="0"
         width="504"
         height="273.60001"
         id="rect208" />
    </clipPath>
    <clipPath
       id="clipPath214">
      <rect
         x="0"
         y="0"
         width="504"
         height="273.60001"
         id="rect212" />
    </clipPath>
    <clipPath
       id="clipPath218">
      <rect
         x="0"
         y="0"
         width="504"
         height="273.60001"
         id="rect216" />
    </clipPath>
    <clipPath
       id="clipPath222">
      <rect
         x="0"
         y="0"
         width="504"
         height="273.60001"
         id="rect220" />
    </clipPath>
    <clipPath
       id="clipPath226">
      <rect
         x="0"
         y="0"
         width="504"
         height="273.60001"
         id="rect224" />
    </clipPath>
    <clipPath
       id="clipPath230">
      <rect
         x="0"
         y="0"
         width="504"
         height="273.60001"
         id="rect228" />
    </clipPath>
    <clipPath
       id="clipPath234">
      <rect
         x="0"
         y="0"
         width="504"
         height="273.60001"
         id="rect232" />
    </clipPath>
    <clipPath
       id="cpMC4wMHw1MDQuMDB8MjczLjYwfDAuMDA=-1">
      <rect
         x="0"
         y="0"
         width="504"
         height="273.60001"
         id="rect43-9" />
    </clipPath>
    <clipPath
       id="cpMC4wMHw1MDQuMDB8MjczLjYwfDAuMDA=-2">
      <rect
         x="0"
         y="0"
         width="504"
         height="273.60001"
         id="rect43-2" />
    </clipPath>
    <clipPath
       id="cpMTY5LjI1fDQ5OC41MnwyMjkuMzZ8MjIuNzg=">
      <rect
         x="169.25"
         y="22.780001"
         width="329.26999"
         height="206.58"
         id="rect10-8" />
    </clipPath>
    <clipPath
       id="clipPath937">
      <rect
         x="169.25"
         y="22.780001"
         width="329.26999"
         height="206.58"
         id="rect935" />
    </clipPath>
    <clipPath
       id="clipPath941">
      <rect
         x="169.25"
         y="22.780001"
         width="329.26999"
         height="206.58"
         id="rect939" />
    </clipPath>
    <clipPath
       id="clipPath945">
      <rect
         x="169.25"
         y="22.780001"
         width="329.26999"
         height="206.58"
         id="rect943" />
    </clipPath>
    <clipPath
       id="clipPath949">
      <rect
         x="169.25"
         y="22.780001"
         width="329.26999"
         height="206.58"
         id="rect947" />
    </clipPath>
    <clipPath
       id="clipPath953">
      <rect
         x="169.25"
         y="22.780001"
         width="329.26999"
         height="206.58"
         id="rect951" />
    </clipPath>
    <clipPath
       id="clipPath957">
      <rect
         x="169.25"
         y="22.780001"
         width="329.26999"
         height="206.58"
         id="rect955" />
    </clipPath>
    <clipPath
       id="clipPath961">
      <rect
         x="169.25"
         y="22.780001"
         width="329.26999"
         height="206.58"
         id="rect959" />
    </clipPath>
    <clipPath
       id="clipPath965">
      <rect
         x="169.25"
         y="22.780001"
         width="329.26999"
         height="206.58"
         id="rect963" />
    </clipPath>
    <clipPath
       id="clipPath969">
      <rect
         x="169.25"
         y="22.780001"
         width="329.26999"
         height="206.58"
         id="rect967" />
    </clipPath>
    <clipPath
       id="clipPath973">
      <rect
         x="169.25"
         y="22.780001"
         width="329.26999"
         height="206.58"
         id="rect971" />
    </clipPath>
    <clipPath
       id="clipPath977">
      <rect
         x="169.25"
         y="22.780001"
         width="329.26999"
         height="206.58"
         id="rect975" />
    </clipPath>
    <clipPath
       id="cpMC4wMHw1MDQuMDB8MjczLjYwfDAuMDA=-5">
      <rect
         x="0"
         y="0"
         width="504"
         height="273.60001"
         id="rect39-3" />
    </clipPath>
    <clipPath
       id="clipPath983">
      <rect
         x="0"
         y="0"
         width="504"
         height="273.60001"
         id="rect981" />
    </clipPath>
    <clipPath
       id="clipPath987">
      <rect
         x="0"
         y="0"
         width="504"
         height="273.60001"
         id="rect985" />
    </clipPath>
    <clipPath
       id="clipPath991">
      <rect
         x="0"
         y="0"
         width="504"
         height="273.60001"
         id="rect989" />
    </clipPath>
    <clipPath
       id="clipPath995">
      <rect
         x="0"
         y="0"
         width="504"
         height="273.60001"
         id="rect993" />
    </clipPath>
    <clipPath
       id="clipPath999">
      <rect
         x="0"
         y="0"
         width="504"
         height="273.60001"
         id="rect997" />
    </clipPath>
    <clipPath
       id="clipPath1003">
      <rect
         x="0"
         y="0"
         width="504"
         height="273.60001"
         id="rect1001" />
    </clipPath>
    <clipPath
       id="clipPath1007">
      <rect
         x="0"
         y="0"
         width="504"
         height="273.60001"
         id="rect1005" />
    </clipPath>
    <clipPath
       id="clipPath1011">
      <rect
         x="0"
         y="0"
         width="504"
         height="273.60001"
         id="rect1009" />
    </clipPath>
    <clipPath
       id="clipPath1015">
      <rect
         x="0"
         y="0"
         width="504"
         height="273.60001"
         id="rect1013" />
    </clipPath>
    <clipPath
       id="cpMC4wMHw1MDQuMDB8MjczLjYwfDAuMDA=-3">
      <rect
         x="0"
         y="0"
         width="504"
         height="273.60001"
         id="rect43-7" />
    </clipPath>
    <clipPath
       id="clipPath2062">
      <rect
         x="0"
         y="0"
         width="504"
         height="273.60001"
         id="rect2060" />
    </clipPath>
    <clipPath
       id="cpMTY5LjI1fDQ5OC41MnwyMjkuMzZ8MjIuNzg=-9">
      <rect
         x="169.25"
         y="22.780001"
         width="329.26999"
         height="206.58"
         id="rect10-3" />
    </clipPath>
    <clipPath
       id="clipPath947">
      <rect
         x="169.25"
         y="22.780001"
         width="329.26999"
         height="206.58"
         id="rect945" />
    </clipPath>
    <clipPath
       id="clipPath951">
      <rect
         x="169.25"
         y="22.780001"
         width="329.26999"
         height="206.58"
         id="rect949" />
    </clipPath>
    <clipPath
       id="clipPath955">
      <rect
         x="169.25"
         y="22.780001"
         width="329.26999"
         height="206.58"
         id="rect953" />
    </clipPath>
    <clipPath
       id="clipPath959">
      <rect
         x="169.25"
         y="22.780001"
         width="329.26999"
         height="206.58"
         id="rect957" />
    </clipPath>
    <clipPath
       id="clipPath963">
      <rect
         x="169.25"
         y="22.780001"
         width="329.26999"
         height="206.58"
         id="rect961" />
    </clipPath>
    <clipPath
       id="clipPath967">
      <rect
         x="169.25"
         y="22.780001"
         width="329.26999"
         height="206.58"
         id="rect965" />
    </clipPath>
    <clipPath
       id="clipPath971">
      <rect
         x="169.25"
         y="22.780001"
         width="329.26999"
         height="206.58"
         id="rect969" />
    </clipPath>
    <clipPath
       id="clipPath975">
      <rect
         x="169.25"
         y="22.780001"
         width="329.26999"
         height="206.58"
         id="rect973" />
    </clipPath>
    <clipPath
       id="clipPath979">
      <rect
         x="169.25"
         y="22.780001"
         width="329.26999"
         height="206.58"
         id="rect977" />
    </clipPath>
    <clipPath
       id="clipPath983-2">
      <rect
         x="169.25"
         y="22.780001"
         width="329.26999"
         height="206.58"
         id="rect981-4" />
    </clipPath>
    <clipPath
       id="clipPath987-3">
      <rect
         x="169.25"
         y="22.780001"
         width="329.26999"
         height="206.58"
         id="rect985-7" />
    </clipPath>
    <clipPath
       id="clipPath991-1">
      <rect
         x="169.25"
         y="22.780001"
         width="329.26999"
         height="206.58"
         id="rect989-2" />
    </clipPath>
    <clipPath
       id="clipPath995-2">
      <rect
         x="169.25"
         y="22.780001"
         width="329.26999"
         height="206.58"
         id="rect993-0" />
    </clipPath>
    <clipPath
       id="cpMC4wMHw1MDQuMDB8MjczLjYwfDAuMDA=-21">
      <rect
         x="0"
         y="0"
         width="504"
         height="273.60001"
         id="rect43-75" />
    </clipPath>
    <clipPath
       id="clipPath1001">
      <rect
         x="0"
         y="0"
         width="504"
         height="273.60001"
         id="rect999" />
    </clipPath>
    <clipPath
       id="clipPath1005">
      <rect
         x="0"
         y="0"
         width="504"
         height="273.60001"
         id="rect1003" />
    </clipPath>
    <clipPath
       id="clipPath1009">
      <rect
         x="0"
         y="0"
         width="504"
         height="273.60001"
         id="rect1007" />
    </clipPath>
    <clipPath
       id="clipPath1013">
      <rect
         x="0"
         y="0"
         width="504"
         height="273.60001"
         id="rect1011" />
    </clipPath>
    <clipPath
       id="clipPath1017">
      <rect
         x="0"
         y="0"
         width="504"
         height="273.60001"
         id="rect1015" />
    </clipPath>
    <clipPath
       id="clipPath1021">
      <rect
         x="0"
         y="0"
         width="504"
         height="273.60001"
         id="rect1019" />
    </clipPath>
    <clipPath
       id="clipPath1025">
      <rect
         x="0"
         y="0"
         width="504"
         height="273.60001"
         id="rect1023" />
    </clipPath>
    <clipPath
       id="clipPath1029">
      <rect
         x="0"
         y="0"
         width="504"
         height="273.60001"
         id="rect1027" />
    </clipPath>
    <clipPath
       id="clipPath1033">
      <rect
         x="0"
         y="0"
         width="504"
         height="273.60001"
         id="rect1031" />
    </clipPath>
    <clipPath
       id="clipPath1037">
      <rect
         x="0"
         y="0"
         width="504"
         height="273.60001"
         id="rect1035" />
    </clipPath>
    <clipPath
       id="clipPath1041">
      <rect
         x="0"
         y="0"
         width="504"
         height="273.60001"
         id="rect1039" />
    </clipPath>
  </defs>
  <sodipodi:namedview
     id="base"
     pagecolor="#ffffff"
     bordercolor="#666666"
     borderopacity="1.0"
     inkscape:pageopacity="0.0"
     inkscape:pageshadow="2"
     inkscape:zoom="1.5758445"
     inkscape:cx="217.14404"
     inkscape:cy="178.21994"
     inkscape:document-units="mm"
     inkscape:current-layer="layer1"
     showgrid="false"
     inkscape:window-width="1996"
     inkscape:window-height="1205"
     inkscape:window-x="287"
     inkscape:window-y="151"
     inkscape:window-maximized="0"
     fit-margin-top="5"
     fit-margin-left="5"
     fit-margin-right="5"
     fit-margin-bottom="5"
     inkscape:document-rotation="0"
     inkscape:lockguides="false"
     showguides="false" />
  <metadata
     id="metadata5">
    <rdf:RDF>
      <cc:Work
         rdf:about="">
        <dc:format>image/svg+xml</dc:format>
        <dc:type
           rdf:resource="http://purl.org/dc/dcmitype/StillImage" />
        <dc:title></dc:title>
      </cc:Work>
    </rdf:RDF>
  </metadata>
  <g
     inkscape:label="レイヤー 1"
     inkscape:groupmode="layer"
     id="layer1"
     transform="translate(204.32159,-75.961423)">
    <rect
       y="85.214218"
       x="-199.27159"
       height="15.537"
       width="13.064"
       id="rect3188"
       style="color:#000000;clip-rule:nonzero;display:inline;overflow:visible;visibility:visible;isolation:auto;mix-blend-mode:normal;color-interpolation:sRGB;color-interpolation-filters:linearRGB;solid-color:#000000;solid-opacity:1;fill:#ffffff;fill-opacity:1;fill-rule:nonzero;stroke:#000000;stroke-width:0.1;stroke-linecap:butt;stroke-linejoin:miter;stroke-miterlimit:4;stroke-dasharray:none;stroke-dashoffset:0;stroke-opacity:1;color-rendering:auto;image-rendering:auto;shape-rendering:auto;text-rendering:auto;enable-background:accumulate" />
    <text
       xml:space="preserve"
       style="color:#000000;font-style:normal;font-variant:normal;font-weight:normal;font-stretch:normal;font-size:10.5833px;font-family:sans-serif;-inkscape-font-specification:'sans-serif, Normal';font-variant-ligatures:normal;font-variant-caps:normal;font-variant-numeric:normal;font-feature-settings:normal;text-indent:0;text-align:center;text-decoration:none;text-decoration-line:none;text-decoration-style:solid;text-decoration-color:#000000;letter-spacing:0px;word-spacing:0px;text-transform:none;writing-mode:lr-tb;direction:ltr;baseline-shift:baseline;text-anchor:middle;white-space:normal;clip-rule:nonzero;display:inline;overflow:visible;visibility:visible;isolation:auto;mix-blend-mode:normal;color-interpolation:sRGB;color-interpolation-filters:linearRGB;solid-color:#000000;solid-opacity:1;fill:#000000;fill-opacity:1;fill-rule:nonzero;stroke:none;stroke-width:0.264583;stroke-linecap:butt;stroke-linejoin:miter;stroke-miterlimit:4;stroke-dasharray:none;stroke-dashoffset:0;stroke-opacity:1;color-rendering:auto;image-rendering:auto;shape-rendering:auto;text-rendering:auto;enable-background:accumulate"
       x="-192.72221"
       y="96.845619"
       id="text3194"
       inkscape:transform-center-x="-13.309773"><tspan
         sodipodi:role="line"
         x="-192.72221"
         y="96.845619"
         style="stroke-width:0.264583"
         id="tspan1287">S3</tspan></text>
    <rect
       style="color:#000000;clip-rule:nonzero;display:inline;overflow:visible;visibility:visible;isolation:auto;mix-blend-mode:normal;color-interpolation:sRGB;color-interpolation-filters:linearRGB;solid-color:#000000;solid-opacity:1;fill:#ffffff;fill-opacity:1;fill-rule:nonzero;stroke:#000000;stroke-width:0.1;stroke-linecap:butt;stroke-linejoin:miter;stroke-miterlimit:4;stroke-dasharray:none;stroke-dashoffset:0;stroke-opacity:1;color-rendering:auto;image-rendering:auto;shape-rendering:auto;text-rendering:auto;enable-background:accumulate"
       id="rect6579"
       width="36.681999"
       height="15.53701"
       x="-112.68378"
       y="85.214211" />
    <text
       id="text1102"
       y="96.845619"
       x="-93.829941"
       style="color:#000000;font-style:normal;font-variant:normal;font-weight:normal;font-stretch:normal;font-size:10.5833px;font-family:sans-serif;-inkscape-font-specification:'sans-serif, Normal';font-variant-ligatures:normal;font-variant-caps:normal;font-variant-numeric:normal;font-feature-settings:normal;text-indent:0;text-align:center;text-decoration:none;text-decoration-line:none;text-decoration-style:solid;text-decoration-color:#000000;letter-spacing:0px;word-spacing:0px;text-transform:none;writing-mode:lr-tb;direction:ltr;baseline-shift:baseline;text-anchor:middle;white-space:normal;clip-rule:nonzero;display:inline;overflow:visible;visibility:visible;isolation:auto;mix-blend-mode:normal;color-interpolation:sRGB;color-interpolation-filters:linearRGB;solid-color:#000000;solid-opacity:1;fill:#000000;fill-opacity:1;fill-rule:nonzero;stroke:none;stroke-width:0.264583;stroke-linecap:butt;stroke-linejoin:miter;stroke-miterlimit:4;stroke-dasharray:none;stroke-dashoffset:0;stroke-opacity:1;color-rendering:auto;image-rendering:auto;shape-rendering:auto;text-rendering:auto;enable-background:accumulate"
       xml:space="preserve"><tspan
         style="stroke-width:0.264583"
         y="96.845619"
         x="-93.829941"
         sodipodi:role="line"
         id="tspan1291">Athena</tspan></text>
    <path
       style="fill:none;fill-rule:evenodd;stroke:#000000;stroke-width:0.997134;stroke-linecap:butt;stroke-linejoin:miter;stroke-miterlimit:1;stroke-dasharray:none;stroke-opacity:1;marker-end:url(#Arrow1Send)"
       d="m -187.02759,92.98271 h 73.699"
       id="path1829"
       inkscape:connector-curvature="0"
       sodipodi:nodetypes="cc" />
    <text
       xml:space="preserve"
       id="text2448"
       style="color:#000000;font-size:0.705556px;font-family:sans-serif;-inkscape-font-specification:'sans-serif, Normal';text-decoration:none;text-decoration-line:none;text-decoration-color:#000000;letter-spacing:0px;word-spacing:0px;writing-mode:lr-tb;white-space:pre;shape-inside:url(#rect2450);overflow:visible;fill:none;stroke:#48e85e;stroke-width:0.5;stroke-linecap:square;stroke-linejoin:miter;stroke-miterlimit:4;stroke-dasharray:none;stroke-opacity:1;paint-order:normal;" />
    <text
       xml:space="preserve"
       style="color:#000000;font-style:normal;font-variant:normal;font-weight:normal;font-stretch:normal;font-size:1.76389px;font-family:sans-serif;-inkscape-font-specification:'sans-serif, Normal';font-variant-ligatures:normal;font-variant-caps:normal;font-variant-numeric:normal;font-variant-east-asian:normal;text-indent:0;text-align:start;text-decoration:none;text-decoration-line:none;text-decoration-style:solid;text-decoration-color:#000000;letter-spacing:0px;word-spacing:0px;text-transform:none;writing-mode:lr-tb;direction:ltr;baseline-shift:baseline;text-anchor:start;white-space:normal;clip-rule:nonzero;display:inline;overflow:visible;visibility:visible;isolation:auto;mix-blend-mode:normal;color-interpolation:sRGB;color-interpolation-filters:linearRGB;solid-color:#000000;solid-opacity:1;fill:#000000;fill-opacity:1;fill-rule:nonzero;stroke:none;stroke-width:0.264583;stroke-linecap:butt;stroke-linejoin:miter;stroke-miterlimit:4;stroke-dasharray:none;stroke-dashoffset:0;stroke-opacity:1;color-rendering:auto;image-rendering:auto;shape-rendering:auto;text-rendering:auto;enable-background:accumulate"
       x="-187.16925"
       y="148.75664"
       id="text1363"
       inkscape:transform-center-x="-13.309773"><tspan
         sodipodi:role="line"
         id="tspan1361"
         x="-187.16925"
         y="148.75664">Apache Arrow logo is licensed under Apache License 2.0 © 2016-2020 The Apache Software Foundation</tspan></text>
    <text
       id="text1944"
       y="89.434326"
       x="-147.42719"
       style="color:#000000;font-style:normal;font-variant:normal;font-weight:normal;font-stretch:normal;font-size:10.5833px;font-family:sans-serif;-inkscape-font-specification:'sans-serif, Normal';font-variant-ligatures:normal;font-variant-caps:normal;font-variant-numeric:normal;font-feature-settings:normal;text-indent:0;text-align:center;text-decoration:none;text-decoration-line:none;text-decoration-style:solid;text-decoration-color:#000000;letter-spacing:0px;word-spacing:0px;text-transform:none;writing-mode:lr-tb;direction:ltr;baseline-shift:baseline;text-anchor:middle;white-space:normal;clip-rule:nonzero;display:inline;overflow:visible;visibility:visible;isolation:auto;mix-blend-mode:normal;color-interpolation:sRGB;color-interpolation-filters:linearRGB;solid-color:#000000;solid-opacity:1;fill:#000000;fill-opacity:1;fill-rule:nonzero;stroke:none;stroke-width:0.264583;stroke-linecap:butt;stroke-linejoin:miter;stroke-miterlimit:4;stroke-dasharray:none;stroke-dashoffset:0;stroke-opacity:1;color-rendering:auto;image-rendering:auto;shape-rendering:auto;text-rendering:auto;enable-background:accumulate"
       xml:space="preserve"><tspan
         style="stroke-width:0.264583"
         y="89.434326"
         x="-147.42719"
         sodipodi:role="line"
         id="tspan1946">CSV</tspan></text>
    <rect
       style="color:#000000;clip-rule:nonzero;display:inline;overflow:visible;visibility:visible;isolation:auto;mix-blend-mode:normal;color-interpolation:sRGB;color-interpolation-filters:linearRGB;solid-color:#000000;solid-opacity:1;fill:#ffffff;fill-opacity:1;fill-rule:nonzero;stroke:#000000;stroke-width:0.1;stroke-linecap:butt;stroke-linejoin:miter;stroke-miterlimit:4;stroke-dasharray:none;stroke-dashoffset:0;stroke-opacity:1;color-rendering:auto;image-rendering:auto;shape-rendering:auto;text-rendering:auto;enable-background:accumulate"
       id="rect1192"
       width="28.094244"
       height="15.53701"
       x="-162.87076"
       y="122.38787" />
    <text
       id="text1196"
       y="128.35921"
       x="-148.77859"
       style="color:#000000;font-style:normal;font-variant:normal;font-weight:normal;font-stretch:normal;font-size:5.29167px;font-family:sans-serif;-inkscape-font-specification:'sans-serif, Normal';font-variant-ligatures:normal;font-variant-caps:normal;font-variant-numeric:normal;font-feature-settings:normal;text-indent:0;text-align:center;text-decoration:none;text-decoration-line:none;text-decoration-style:solid;text-decoration-color:#000000;letter-spacing:0px;word-spacing:0px;text-transform:none;writing-mode:lr-tb;direction:ltr;baseline-shift:baseline;text-anchor:middle;white-space:normal;clip-rule:nonzero;display:inline;overflow:visible;visibility:visible;isolation:auto;mix-blend-mode:normal;color-interpolation:sRGB;color-interpolation-filters:linearRGB;solid-color:#000000;solid-opacity:1;fill:#000000;fill-opacity:1;fill-rule:nonzero;stroke:none;stroke-width:0.264583;stroke-linecap:butt;stroke-linejoin:miter;stroke-miterlimit:4;stroke-dasharray:none;stroke-dashoffset:0;stroke-opacity:1;color-rendering:auto;image-rendering:auto;shape-rendering:auto;text-rendering:auto;enable-background:accumulate"
       xml:space="preserve"><tspan
         style="font-size:5.29167px;stroke-width:0.264583"
         y="128.35921"
         x="-148.77859"
         sodipodi:role="line"
         id="tspan1194">Federated</tspan><tspan
         style="font-size:5.29167px;stroke-width:0.264583"
         y="135.07901"
         x="-148.77859"
         sodipodi:role="line"
         id="tspan1198">Query</tspan></text>
    <path
       style="fill:none;fill-rule:evenodd;stroke:#000000;stroke-width:3;stroke-linecap:butt;stroke-linejoin:miter;stroke-miterlimit:1;stroke-dasharray:none;stroke-opacity:1;marker-end:url(#TriangleOutS)"
       d="m -147.0171,102.72058 v 16.09297"
       id="path2147"
       inkscape:connector-curvature="0"
       sodipodi:nodetypes="cc" />
    <text
       id="text2964"
       y="109.33287"
       x="-141.5863"
       style="color:#000000;font-style:normal;font-variant:normal;font-weight:normal;font-stretch:normal;font-size:8.46667px;font-family:sans-serif;-inkscape-font-specification:'sans-serif, Normal';font-variant-ligatures:normal;font-variant-caps:normal;font-variant-numeric:normal;font-variant-east-asian:normal;text-indent:0;text-align:start;text-decoration:none;text-decoration-line:none;text-decoration-style:solid;text-decoration-color:#000000;letter-spacing:0px;word-spacing:0px;text-transform:none;writing-mode:lr-tb;direction:ltr;baseline-shift:baseline;text-anchor:start;white-space:normal;clip-rule:nonzero;display:inline;overflow:visible;visibility:visible;isolation:auto;mix-blend-mode:normal;color-interpolation:sRGB;color-interpolation-filters:linearRGB;solid-color:#000000;solid-opacity:1;fill:#000000;fill-opacity:1;fill-rule:nonzero;stroke:none;stroke-width:0.264583;stroke-linecap:butt;stroke-linejoin:miter;stroke-miterlimit:4;stroke-dasharray:none;stroke-dashoffset:0;stroke-opacity:1;color-rendering:auto;image-rendering:auto;shape-rendering:auto;text-rendering:auto;enable-background:accumulate"
       xml:space="preserve"><tspan
         sodipodi:role="line"
         id="tspan1237"
         x="-141.5863"
         y="109.33287">組込クエリーより</tspan><tspan
         sodipodi:role="line"
         x="-141.5863"
         y="119.91621"
         id="tspan1239">高速</tspan></text>
    <rect
       y="122.38788"
       x="-199.27159"
       height="15.537003"
       width="13.064"
       id="rect1246"
       style="color:#000000;clip-rule:nonzero;display:inline;overflow:visible;visibility:visible;isolation:auto;mix-blend-mode:normal;color-interpolation:sRGB;color-interpolation-filters:linearRGB;solid-color:#000000;solid-opacity:1;fill:#ffffff;fill-opacity:1;fill-rule:nonzero;stroke:#000000;stroke-width:0.1;stroke-linecap:butt;stroke-linejoin:miter;stroke-miterlimit:4;stroke-dasharray:none;stroke-dashoffset:0;stroke-opacity:1;color-rendering:auto;image-rendering:auto;shape-rendering:auto;text-rendering:auto;enable-background:accumulate" />
    <text
       xml:space="preserve"
       style="color:#000000;font-style:normal;font-variant:normal;font-weight:normal;font-stretch:normal;font-size:10.5833px;font-family:sans-serif;-inkscape-font-specification:'sans-serif, Normal';font-variant-ligatures:normal;font-variant-caps:normal;font-variant-numeric:normal;font-feature-settings:normal;text-indent:0;text-align:center;text-decoration:none;text-decoration-line:none;text-decoration-style:solid;text-decoration-color:#000000;letter-spacing:0px;word-spacing:0px;text-transform:none;writing-mode:lr-tb;direction:ltr;baseline-shift:baseline;text-anchor:middle;white-space:normal;clip-rule:nonzero;display:inline;overflow:visible;visibility:visible;isolation:auto;mix-blend-mode:normal;color-interpolation:sRGB;color-interpolation-filters:linearRGB;solid-color:#000000;solid-opacity:1;fill:#000000;fill-opacity:1;fill-rule:nonzero;stroke:none;stroke-width:0.264583;stroke-linecap:butt;stroke-linejoin:miter;stroke-miterlimit:4;stroke-dasharray:none;stroke-dashoffset:0;stroke-opacity:1;color-rendering:auto;image-rendering:auto;shape-rendering:auto;text-rendering:auto;enable-background:accumulate"
       x="-192.72221"
       y="134.01929"
       id="text1250"
       inkscape:transform-center-x="-13.309773"><tspan
         sodipodi:role="line"
         x="-192.72221"
         y="134.01929"
         style="stroke-width:0.264583"
         id="tspan1248">S3</tspan></text>
    <rect
       style="color:#000000;clip-rule:nonzero;display:inline;overflow:visible;visibility:visible;isolation:auto;mix-blend-mode:normal;color-interpolation:sRGB;color-interpolation-filters:linearRGB;solid-color:#000000;solid-opacity:1;fill:#ffffff;fill-opacity:1;fill-rule:nonzero;stroke:#000000;stroke-width:0.1;stroke-linecap:butt;stroke-linejoin:miter;stroke-miterlimit:4;stroke-dasharray:none;stroke-dashoffset:0;stroke-opacity:1;color-rendering:auto;image-rendering:auto;shape-rendering:auto;text-rendering:auto;enable-background:accumulate"
       id="rect1252"
       width="36.681999"
       height="15.53701"
       x="-112.68378"
       y="122.38787" />
    <text
       id="text1256"
       y="134.01929"
       x="-93.829941"
       style="color:#000000;font-style:normal;font-variant:normal;font-weight:normal;font-stretch:normal;font-size:10.5833px;font-family:sans-serif;-inkscape-font-specification:'sans-serif, Normal';font-variant-ligatures:normal;font-variant-caps:normal;font-variant-numeric:normal;font-feature-settings:normal;text-indent:0;text-align:center;text-decoration:none;text-decoration-line:none;text-decoration-style:solid;text-decoration-color:#000000;letter-spacing:0px;word-spacing:0px;text-transform:none;writing-mode:lr-tb;direction:ltr;baseline-shift:baseline;text-anchor:middle;white-space:normal;clip-rule:nonzero;display:inline;overflow:visible;visibility:visible;isolation:auto;mix-blend-mode:normal;color-interpolation:sRGB;color-interpolation-filters:linearRGB;solid-color:#000000;solid-opacity:1;fill:#000000;fill-opacity:1;fill-rule:nonzero;stroke:none;stroke-width:0.264583;stroke-linecap:butt;stroke-linejoin:miter;stroke-miterlimit:4;stroke-dasharray:none;stroke-dashoffset:0;stroke-opacity:1;color-rendering:auto;image-rendering:auto;shape-rendering:auto;text-rendering:auto;enable-background:accumulate"
       xml:space="preserve"><tspan
         style="stroke-width:0.264583"
         y="134.01929"
         x="-93.829941"
         sodipodi:role="line"
         id="tspan1254">Athena</tspan></text>
    <g
       clip-path="url(#cpMC4wMHw1MDQuMDB8MjczLjYwfDAuMDA=)"
       id="g92"
       transform="translate(-312.41633,-99.12725)"
       style="stroke-width:1;stroke-miterlimit:4;stroke-dasharray:none">
      <text
         x="259.67413"
         y="245.17319"
         style="font-style:normal;font-variant:normal;font-weight:normal;font-stretch:normal;font-size:1.76389px;font-family:sans-serif;-inkscape-font-specification:'sans-serif, Normal';font-variant-ligatures:normal;font-variant-caps:normal;font-variant-numeric:normal;font-variant-east-asian:normal;text-align:end;text-anchor:end;stroke-width:1;stroke-miterlimit:4;stroke-dasharray:none"
         id="text90"><tspan
           sodipodi:role="line"
           id="tspan1241"
           x="259.67413"
           y="245.17319">1億行の処理にかかった時間</tspan></text>
    </g>
    <text
       x="-51.662983"
       y="151.43767"
       style="font-style:normal;font-variant:normal;font-weight:normal;font-stretch:normal;font-size:1.76389px;font-family:sans-serif;-inkscape-font-specification:'sans-serif, Normal';font-variant-ligatures:normal;font-variant-caps:normal;font-variant-numeric:normal;font-variant-east-asian:normal;text-align:end;text-anchor:end"
       id="text102"><tspan
         sodipodi:role="line"
         id="tspan1164"
         x="-51.662979"
         y="151.43767">Data at https://github.com/awslabs/aws-athena-query-federation/tree/master/athena-federation-sdk#performance</tspan></text>
    <g
       clip-path="url(#cpMC4wMHw1MDQuMDB8MjczLjYwfDAuMDA=)"
       id="g1961"
       transform="translate(-315.19165,-96.906462)">
      <text
         x="244.72957"
         y="252.48"
         style="font-style:normal;font-variant:normal;font-weight:normal;font-stretch:normal;font-size:1.76389px;font-family:sans-serif;-inkscape-font-specification:'sans-serif, Normal';font-variant-ligatures:normal;font-variant-caps:normal;font-variant-numeric:normal;font-variant-east-asian:normal;text-align:center;text-anchor:middle"
         id="text1959"
         transform="translate(6.4961606,-7.3068153)"><tspan
           sodipodi:role="line"
           id="tspan1243"
           x="244.72957"
           y="252.48">（短いほど高速）</tspan></text>
    </g>
    <path
       style="fill:none;fill-rule:evenodd;stroke:#000000;stroke-width:0.997134;stroke-linecap:butt;stroke-linejoin:miter;stroke-miterlimit:1;stroke-dasharray:none;stroke-opacity:1;marker-end:url(#marker1278)"
       d="m -186.69207,130.86978 h 24.17587"
       id="path1258"
       inkscape:connector-curvature="0"
       sodipodi:nodetypes="cc" />
    <path
       style="fill:none;fill-rule:evenodd;stroke:#000000;stroke-width:0.997134;stroke-linecap:butt;stroke-linejoin:miter;stroke-miterlimit:1;stroke-dasharray:none;stroke-opacity:1;marker-end:url(#marker1668)"
       d="m -135.73449,130.86978 h 24.17993"
       id="path1504"
       inkscape:connector-curvature="0"
       sodipodi:nodetypes="cc" />
    <g
       inkscape:label="Layer 1"
       id="layer1-6"
       transform="matrix(0.12692143,0,0,0.12692143,-175.03494,126.05877)">
      <path
         style="fill:#070707;stroke-width:0.264583"
         d="m -133.80105,144.91836 v -7.45941 l 10.84792,-10.83169 c 5.96635,-5.95744 10.84791,-10.95742 10.84791,-11.11108 0,-0.15366 -4.88156,-5.16507 -10.84791,-11.13646 l -10.84792,-10.857076 v -7.35883 c 0,-4.04736 0.0893,-7.35867 0.19844,-7.35847 0.37929,7.2e-4 36.578637,36.399116 36.578637,36.779786 0,0.3862 -35.452897,36.05425 -36.314057,36.53444 -0.43613,0.24319 -0.46302,-0.17505 -0.46302,-7.20121 z m 45.772917,0.0884 v -7.3524 l 10.84791,-10.8923 c 5.96636,-5.99076 10.84792,-11.04687 10.84792,-11.23579 0,-0.18892 -4.88156,-5.22396 -10.84792,-11.18899 l -10.84791,-10.845486 v -7.3434 c 0,-4.03887 0.0896,-7.3434 0.19915,-7.3434 0.38832,0 36.57793,36.388066 36.57793,36.778516 0,0.38949 -36.19195,36.77565 -36.57936,36.77565 -0.10875,0 -0.19772,-3.30858 -0.19772,-7.3524 z m -23.018747,-0.11466 v -7.20248 l 10.84791,-10.85956 c 5.966357,-5.97276 10.847917,-11.03435 10.847917,-11.24798 0,-0.21363 -4.88156,-5.27522 -10.847917,-11.24798 l -10.84791,-10.859566 v -7.18686 c 0,-3.95278 0.0965,-7.24652 0.21449,-7.31943 0.11797,-0.0729 8.48179,8.13538 18.586257,18.24064 l 18.37177,18.373186 -18.25481,18.25625 c -10.040147,10.04094 -18.403967,18.25626 -18.586257,18.25626 -0.25743,0 -0.33145,-1.60856 -0.33145,-7.20248 z"
         id="path2043"
         inkscape:connector-curvature="0" />
      <g
         aria-label="ARROW"
         style="font-style:normal;font-variant:normal;font-weight:normal;font-stretch:normal;font-size:39.5003px;line-height:125%;font-family:Montserrat;-inkscape-font-specification:Montserrat;letter-spacing:0px;word-spacing:0px;fill:#000000;fill-opacity:1;stroke:none;stroke-width:1.43637px;stroke-linecap:butt;stroke-linejoin:miter;stroke-opacity:1"
         id="text2047">
        <path
           d="m -15.524782,127.32554 -2.56752,-5.96455 h -11.573589 l -2.56752,5.96455 h -6.557051 L -26.86137,99.714825 h 5.964546 l 11.9290925,27.610715 z m -8.334565,-19.39465 -3.476026,8.01856 h 6.912553 z"
           style="font-style:normal;font-variant:normal;font-weight:bold;font-stretch:normal;font-family:Montserrat;-inkscape-font-specification:'Montserrat Bold';stroke-width:1.43637px"
           id="path2049"
           inkscape:connector-curvature="0" />
        <path
           d="m 16.594521,108.8789 q 0,6.63605 -5.253541,8.57156 l 6.991554,9.87508 H 10.748475 L 4.6259281,118.51697 H 0.35989516 v 8.80857 H -5.8021525 V 99.714825 H 4.6654284 q 6.4385496,0 9.1640706,2.172515 2.765022,2.17252 2.765022,6.99156 z m -11.7315911,4.30553 q 3.1600245,0 4.3055333,-1.02701 1.1455088,-1.02701 1.1455088,-3.23902 0,-2.25152 -1.1850091,-3.08103 -1.1850091,-0.8295 -4.147532,-0.8295 H 0.35989516 v 8.17656 z"
           style="font-style:normal;font-variant:normal;font-weight:bold;font-stretch:normal;font-family:Montserrat;-inkscape-font-specification:'Montserrat Bold';stroke-width:1.43637px"
           id="path2051"
           inkscape:connector-curvature="0" />
        <path
           d="m 45.293962,108.8789 q 0,6.63605 -5.25354,8.57156 l 6.991554,9.87508 h -7.584059 l -6.122547,-8.80857 h -4.266033 v 8.80857 H 22.897289 V 99.714825 H 33.36487 q 6.43855,0 9.164071,2.172515 2.765021,2.17252 2.765021,6.99156 z m -11.73159,4.30553 q 3.160024,0 4.305533,-1.02701 1.145509,-1.02701 1.145509,-3.23902 0,-2.25152 -1.185009,-3.08103 -1.185009,-0.8295 -4.147532,-0.8295 h -4.621536 v 8.17656 z"
           style="font-style:normal;font-variant:normal;font-weight:bold;font-stretch:normal;font-family:Montserrat;-inkscape-font-specification:'Montserrat Bold';stroke-width:1.43637px"
           id="path2053"
           inkscape:connector-curvature="0" />
        <path
           d="m 72.420799,113.38193 q 0,-3.71303 -2.370018,-6.32005 -2.370019,-2.60702 -5.846045,-2.60702 -3.436527,0 -5.806545,2.60702 -2.370019,2.60702 -2.370019,6.32005 0,3.67353 2.370019,6.28055 2.370018,2.56752 5.806545,2.56752 3.476026,0 5.846045,-2.56752 2.370018,-2.60702 2.370018,-6.28055 z m 2.093516,10.15158 q -4.187032,4.06853 -10.309579,4.06853 -6.122548,0 -10.30958,-4.06853 -4.187032,-4.10803 -4.187032,-10.19108 0,-6.08305 4.187032,-10.15158 4.187032,-4.10803 10.30958,-4.10803 6.122547,0 10.309579,4.10803 4.187033,4.06853 4.187033,10.15158 0,6.08305 -4.187033,10.19108 z"
           style="font-style:normal;font-variant:normal;font-weight:bold;font-stretch:normal;font-family:Montserrat;-inkscape-font-specification:'Montserrat Bold';stroke-width:1.43637px"
           id="path2055"
           inkscape:connector-curvature="0" />
        <path
           d="m 92.070345,115.59395 4.898038,-15.879125 h 6.438547 l 4.85854,15.879125 5.49054,-15.879125 h 6.67555 l -9.63807,27.610715 h -4.58204 l -6.04354,-19.19715 -6.004049,19.19715 H 89.581826 L 79.943751,99.714825 h 6.675552 z"
           style="font-style:normal;font-variant:normal;font-weight:bold;font-stretch:normal;font-family:Montserrat;-inkscape-font-specification:'Montserrat Bold';stroke-width:1.43637px"
           id="path2057"
           inkscape:connector-curvature="0" />
      </g>
    </g>
    <g
       inkscape:label="Layer 1"
       id="g1296"
       transform="matrix(0.12692143,0,0,0.12692143,-123.37075,126.05877)">
      <path
         style="fill:#070707;stroke-width:0.264583"
         d="m -133.80105,144.91836 v -7.45941 l 10.84792,-10.83169 c 5.96635,-5.95744 10.84791,-10.95742 10.84791,-11.11108 0,-0.15366 -4.88156,-5.16507 -10.84791,-11.13646 l -10.84792,-10.857076 v -7.35883 c 0,-4.04736 0.0893,-7.35867 0.19844,-7.35847 0.37929,7.2e-4 36.578637,36.399116 36.578637,36.779786 0,0.3862 -35.452897,36.05425 -36.314057,36.53444 -0.43613,0.24319 -0.46302,-0.17505 -0.46302,-7.20121 z m 45.772917,0.0884 v -7.3524 l 10.84791,-10.8923 c 5.96636,-5.99076 10.84792,-11.04687 10.84792,-11.23579 0,-0.18892 -4.88156,-5.22396 -10.84792,-11.18899 l -10.84791,-10.845486 v -7.3434 c 0,-4.03887 0.0896,-7.3434 0.19915,-7.3434 0.38832,0 36.57793,36.388066 36.57793,36.778516 0,0.38949 -36.19195,36.77565 -36.57936,36.77565 -0.10875,0 -0.19772,-3.30858 -0.19772,-7.3524 z m -23.018747,-0.11466 v -7.20248 l 10.84791,-10.85956 c 5.966357,-5.97276 10.847917,-11.03435 10.847917,-11.24798 0,-0.21363 -4.88156,-5.27522 -10.847917,-11.24798 l -10.84791,-10.859566 v -7.18686 c 0,-3.95278 0.0965,-7.24652 0.21449,-7.31943 0.11797,-0.0729 8.48179,8.13538 18.586257,18.24064 l 18.37177,18.373186 -18.25481,18.25625 c -10.040147,10.04094 -18.403967,18.25626 -18.586257,18.25626 -0.25743,0 -0.33145,-1.60856 -0.33145,-7.20248 z"
         id="path1282"
         inkscape:connector-curvature="0" />
      <g
         aria-label="ARROW"
         style="font-style:normal;font-variant:normal;font-weight:normal;font-stretch:normal;font-size:39.5003px;line-height:125%;font-family:Montserrat;-inkscape-font-specification:Montserrat;letter-spacing:0px;word-spacing:0px;fill:#000000;fill-opacity:1;stroke:none;stroke-width:1.43637px;stroke-linecap:butt;stroke-linejoin:miter;stroke-opacity:1"
         id="g1294">
        <path
           d="m -15.524782,127.32554 -2.56752,-5.96455 h -11.573589 l -2.56752,5.96455 h -6.557051 L -26.86137,99.714825 h 5.964546 l 11.9290925,27.610715 z m -8.334565,-19.39465 -3.476026,8.01856 h 6.912553 z"
           style="font-style:normal;font-variant:normal;font-weight:bold;font-stretch:normal;font-family:Montserrat;-inkscape-font-specification:'Montserrat Bold';stroke-width:1.43637px"
           id="path1284"
           inkscape:connector-curvature="0" />
        <path
           d="m 16.594521,108.8789 q 0,6.63605 -5.253541,8.57156 l 6.991554,9.87508 H 10.748475 L 4.6259281,118.51697 H 0.35989516 v 8.80857 H -5.8021525 V 99.714825 H 4.6654284 q 6.4385496,0 9.1640706,2.172515 2.765022,2.17252 2.765022,6.99156 z m -11.7315911,4.30553 q 3.1600245,0 4.3055333,-1.02701 1.1455088,-1.02701 1.1455088,-3.23902 0,-2.25152 -1.1850091,-3.08103 -1.1850091,-0.8295 -4.147532,-0.8295 H 0.35989516 v 8.17656 z"
           style="font-style:normal;font-variant:normal;font-weight:bold;font-stretch:normal;font-family:Montserrat;-inkscape-font-specification:'Montserrat Bold';stroke-width:1.43637px"
           id="path1286"
           inkscape:connector-curvature="0" />
        <path
           d="m 45.293962,108.8789 q 0,6.63605 -5.25354,8.57156 l 6.991554,9.87508 h -7.584059 l -6.122547,-8.80857 h -4.266033 v 8.80857 H 22.897289 V 99.714825 H 33.36487 q 6.43855,0 9.164071,2.172515 2.765021,2.17252 2.765021,6.99156 z m -11.73159,4.30553 q 3.160024,0 4.305533,-1.02701 1.145509,-1.02701 1.145509,-3.23902 0,-2.25152 -1.185009,-3.08103 -1.185009,-0.8295 -4.147532,-0.8295 h -4.621536 v 8.17656 z"
           style="font-style:normal;font-variant:normal;font-weight:bold;font-stretch:normal;font-family:Montserrat;-inkscape-font-specification:'Montserrat Bold';stroke-width:1.43637px"
           id="path1288"
           inkscape:connector-curvature="0" />
        <path
           d="m 72.420799,113.38193 q 0,-3.71303 -2.370018,-6.32005 -2.370019,-2.60702 -5.846045,-2.60702 -3.436527,0 -5.806545,2.60702 -2.370019,2.60702 -2.370019,6.32005 0,3.67353 2.370019,6.28055 2.370018,2.56752 5.806545,2.56752 3.476026,0 5.846045,-2.56752 2.370018,-2.60702 2.370018,-6.28055 z m 2.093516,10.15158 q -4.187032,4.06853 -10.309579,4.06853 -6.122548,0 -10.30958,-4.06853 -4.187032,-4.10803 -4.187032,-10.19108 0,-6.08305 4.187032,-10.15158 4.187032,-4.10803 10.30958,-4.10803 6.122547,0 10.309579,4.10803 4.187033,4.06853 4.187033,10.15158 0,6.08305 -4.187033,10.19108 z"
           style="font-style:normal;font-variant:normal;font-weight:bold;font-stretch:normal;font-family:Montserrat;-inkscape-font-specification:'Montserrat Bold';stroke-width:1.43637px"
           id="path1290"
           inkscape:connector-curvature="0" />
        <path
           d="m 92.070345,115.59395 4.898038,-15.879125 h 6.438547 l 4.85854,15.879125 5.49054,-15.879125 h 6.67555 l -9.63807,27.610715 h -4.58204 l -6.04354,-19.19715 -6.004049,19.19715 H 89.581826 L 79.943751,99.714825 h 6.675552 z"
           style="font-style:normal;font-variant:normal;font-weight:bold;font-stretch:normal;font-family:Montserrat;-inkscape-font-specification:'Montserrat Bold';stroke-width:1.43637px"
           id="path1292"
           inkscape:connector-curvature="0" />
      </g>
    </g>
    <rect
       x="169.25"
       y="22.780001"
       width="329.26999"
       height="206.58"
       style="fill:#ebebeb;stroke:none;stroke-width:1.07;stroke-linecap:round;stroke-linejoin:round;stroke-miterlimit:10"
       id="rect15"
       transform="matrix(0.05253123,0,0,0.2909857,-81.050465,74.299792)"
       clip-path="url(#cpMTY5LjI1fDQ5OC41MnwyMjkuMzZ8MjIuNzg=-9)" />
    <polyline
       points="220.14,229.36 220.14,22.78 "
       style="fill:none;stroke:#ffffff;stroke-width:1.13236;stroke-linecap:butt;stroke-linejoin:round;stroke-miterlimit:10;stroke-dasharray:none"
       clip-path="url(#cpMTY5LjI1fDQ5OC41MnwyMjkuMzZ8MjIuNzg=-9)"
       id="polyline17"
       transform="matrix(0.05253123,0,0,0.2909857,-81.050465,74.299792)" />
    <polyline
       points="291.98,229.36 291.98,22.78 "
       style="fill:none;stroke:#ffffff;stroke-width:1.13236;stroke-linecap:butt;stroke-linejoin:round;stroke-miterlimit:10;stroke-dasharray:none"
       clip-path="url(#cpMTY5LjI1fDQ5OC41MnwyMjkuMzZ8MjIuNzg=-9)"
       id="polyline19"
       transform="matrix(0.05253123,0,0,0.2909857,-81.050465,74.299792)" />
    <polyline
       points="363.82,229.36 363.82,22.78 "
       style="fill:none;stroke:#ffffff;stroke-width:1.13236;stroke-linecap:butt;stroke-linejoin:round;stroke-miterlimit:10;stroke-dasharray:none"
       clip-path="url(#cpMTY5LjI1fDQ5OC41MnwyMjkuMzZ8MjIuNzg=-9)"
       id="polyline21"
       transform="matrix(0.05253123,0,0,0.2909857,-81.050465,74.299792)" />
    <polyline
       points="435.66,229.36 435.66,22.78 "
       style="fill:none;stroke:#ffffff;stroke-width:1.13236;stroke-linecap:butt;stroke-linejoin:round;stroke-miterlimit:10;stroke-dasharray:none"
       clip-path="url(#cpMTY5LjI1fDQ5OC41MnwyMjkuMzZ8MjIuNzg=-9)"
       id="polyline23"
       transform="matrix(0.05253123,0,0,0.2909857,-81.050465,74.299792)" />
    <polyline
       points="184.22,229.36 184.22,22.78 "
       style="fill:none;stroke:#ffffff;stroke-width:2.28898;stroke-linecap:butt;stroke-linejoin:round;stroke-miterlimit:10;stroke-dasharray:none"
       id="polyline29"
       transform="matrix(0.05253123,0,0,0.2909857,-81.050465,74.299792)"
       clip-path="url(#cpMTY5LjI1fDQ5OC41MnwyMjkuMzZ8MjIuNzg=-9)" />
    <polyline
       points="256.06,229.36 256.06,22.78 "
       style="fill:none;stroke:#ffffff;stroke-width:2.28898;stroke-linecap:butt;stroke-linejoin:round;stroke-miterlimit:10;stroke-dasharray:none"
       clip-path="url(#cpMTY5LjI1fDQ5OC41MnwyMjkuMzZ8MjIuNzg=-9)"
       id="polyline31"
       transform="matrix(0.05253123,0,0,0.2909857,-81.050465,74.299792)" />
    <polyline
       points="327.90,229.36 327.90,22.78 "
       style="fill:none;stroke:#ffffff;stroke-width:2.28898;stroke-linecap:butt;stroke-linejoin:round;stroke-miterlimit:10;stroke-dasharray:none"
       clip-path="url(#cpMTY5LjI1fDQ5OC41MnwyMjkuMzZ8MjIuNzg=-9)"
       id="polyline33"
       transform="matrix(0.05253123,0,0,0.2909857,-81.050465,74.299792)" />
    <polyline
       points="399.74,229.36 399.74,22.78 "
       style="fill:none;stroke:#ffffff;stroke-width:2.28898;stroke-linecap:butt;stroke-linejoin:round;stroke-miterlimit:10;stroke-dasharray:none"
       clip-path="url(#cpMTY5LjI1fDQ5OC41MnwyMjkuMzZ8MjIuNzg=-9)"
       id="polyline35"
       transform="matrix(0.05253123,0,0,0.2909857,-81.050465,74.299792)" />
    <polyline
       points="471.58,229.36 471.58,22.78 "
       style="fill:none;stroke:#ffffff;stroke-width:2.28898;stroke-linecap:butt;stroke-linejoin:round;stroke-miterlimit:10;stroke-dasharray:none"
       clip-path="url(#cpMTY5LjI1fDQ5OC41MnwyMjkuMzZ8MjIuNzg=-9)"
       id="polyline37"
       transform="matrix(0.05253123,0,0,0.2909857,-81.050465,74.299792)" />
    <rect
       x="184.22"
       y="174.57677"
       width="299.34"
       height="22.460596"
       style="fill:#595959;stroke:none;stroke-width:1.07;stroke-linecap:square;stroke-linejoin:miter;stroke-miterlimit:10"
       clip-path="url(#cpMTY5LjI1fDQ5OC41MnwyMjkuMzZ8MjIuNzg=-9)"
       id="rect39"
       transform="matrix(0.05253123,0,0,0.2909857,-81.050465,39.388597)" />
    <rect
       x="184.22"
       y="53.802113"
       width="23.949997"
       height="22.631847"
       style="fill:#595959;stroke:none;stroke-width:1.07;stroke-linecap:square;stroke-linejoin:miter;stroke-miterlimit:10"
       clip-path="url(#cpMTY5LjI1fDQ5OC41MnwyMjkuMzZ8MjIuNzg=-9)"
       id="rect41"
       transform="matrix(0.05253123,0,0,0.2909857,-81.050465,110.60635)" />
    <polyline
       points="184.22,232.10 184.22,229.36 "
       style="fill:none;stroke:#333333;stroke-width:2.28898;stroke-linecap:butt;stroke-linejoin:round;stroke-miterlimit:10;stroke-dasharray:none"
       clip-path="url(#cpMC4wMHw1MDQuMDB8MjczLjYwfDAuMDA=-21)"
       id="polyline60"
       transform="matrix(0.05253123,0,0,0.2909857,-81.050465,74.299792)" />
    <polyline
       points="327.90,232.10 327.90,229.36 "
       style="fill:none;stroke:#333333;stroke-width:2.28898;stroke-linecap:butt;stroke-linejoin:round;stroke-miterlimit:10;stroke-dasharray:none"
       clip-path="url(#cpMC4wMHw1MDQuMDB8MjczLjYwfDAuMDA=-21)"
       id="polyline64"
       transform="matrix(0.05253123,0,0,0.2909857,-81.050465,74.299792)" />
    <polyline
       points="471.58,232.10 471.58,229.36 "
       style="fill:none;stroke:#333333;stroke-width:2.28898;stroke-linecap:butt;stroke-linejoin:round;stroke-miterlimit:10;stroke-dasharray:none"
       clip-path="url(#cpMC4wMHw1MDQuMDB8MjczLjYwfDAuMDA=-21)"
       id="polyline68"
       transform="matrix(0.05253123,0,0,0.2909857,-81.050465,74.299792)" />
    <text
       x="-72.278519"
       y="143.60109"
       style="font-style:normal;font-variant:normal;font-weight:normal;font-stretch:normal;font-size:1.76389px;font-family:sans-serif;-inkscape-font-specification:'sans-serif, Normal';font-variant-ligatures:normal;font-variant-caps:normal;font-variant-numeric:normal;font-variant-east-asian:normal;fill:#4d4d4d;stroke-width:1"
       id="text86-0-2"><tspan
         sodipodi:role="line"
         id="tspan1293"
         x="-72.278519"
         y="143.60109">0s</tspan></text>
    <text
       x="-64.673508"
       y="143.60109"
       style="font-style:normal;font-variant:normal;font-weight:normal;font-stretch:normal;font-size:1.76389px;font-family:sans-serif;-inkscape-font-specification:'sans-serif, Normal';font-variant-ligatures:normal;font-variant-caps:normal;font-variant-numeric:normal;font-variant-east-asian:normal;fill:#4d4d4d;stroke-width:1"
       id="text1482"><tspan
         sodipodi:role="line"
         id="tspan1337"
         x="-64.673508"
         y="143.60109">4s</tspan></text>
    <text
       x="-57.227879"
       y="143.60109"
       style="font-style:normal;font-variant:normal;font-weight:normal;font-stretch:normal;font-size:1.76389px;font-family:sans-serif;-inkscape-font-specification:'sans-serif, Normal';font-variant-ligatures:normal;font-variant-caps:normal;font-variant-numeric:normal;font-variant-east-asian:normal;fill:#4d4d4d;stroke-width:1"
       id="text1494"><tspan
         sodipodi:role="line"
         id="tspan1339"
         x="-57.227879"
         y="143.60109">8s</tspan></text>
  </g>
</svg>
